NYCFLIGHTS13_Project
…
#filter for on-time flights
filter(flights,arr_delay == 0 & dep_delay == 0)

#we can use pipe operator with filter(), get the same result:
ontime_flights <- flights %>% filter(dep_delay == 0 & arr_delay == 0)
Output

> flights %>% filter(dep_delay == 0 & arr_delay == 0)
# A tibble: 347 × 19
    year month   day dep_time sched_dep_time dep_delay
   <int> <int> <int>    <int>          <int>     <dbl>
 1  2013     1     2      600            600         0
 2  2013     1     2     1437           1437         0
 3  2013     1     3      835            835         0
 4  2013     1     3     1245           1245         0
 5  2013     1     4     2005           2005         0
 6  2013     1     6      937            937         0
 7  2013     1     6     1515           1515         0
 8  2013     1     6     1932           1932         0
 9  2013     1     6     2030           2030         0
10  2013     1     8     1030           1030         0
# ℹ 337 more rows
# ℹ 13 more variables: arr_time <int>,
#   sched_arr_time <int>, arr_delay <dbl>, carrier <chr>,
#   flight <int>, tailnum <chr>, origin <chr>, dest <chr>,
#   air_time <dbl>, distance <dbl>, hour <dbl>,
#   minute <dbl>, time_hour <dttm>
…
